[gd_scene load_steps=2 format=2]

[ext_resource path="res://Main.gd" type="Script" id=2]

[node name="Main" type="Node2D"]
script = ExtResource( 2 )

[node name="FileDialog" type="FileDialog" parent="."]
margin_left = 229.517
margin_top = 77.082
margin_right = 742.517
margin_bottom = 463.082
size_flags_horizontal = 3
size_flags_vertical = 3
window_title = "Open a File"
mode = 0
filters = PoolStringArray( "*.json" )
__meta__ = {
"_edit_use_anchors_": false
}
[connection signal="file_selected" from="FileDialog" to="." method="_on_FileDialog_file_selected"]
