[gd_scene load_steps=6 format=2]

[ext_resource path="res://gfx/pig/pig_1.png" type="Texture" id=1]
[ext_resource path="res://gfx/pig/pig_0.png" type="Texture" id=2]
[ext_resource path="res://gfx/pig/pig_3.png" type="Texture" id=3]
[ext_resource path="res://gfx/pig/pig_2.png" type="Texture" id=4]

[sub_resource type="SpriteFrames" id=1]
animations = [ {
"frames": [ ExtResource( 2 ), ExtResource( 1 ), ExtResource( 4 ), ExtResource( 3 ) ],
"loop": true,
"name": "default",
"speed": 10.0
} ]

[node name="Pig" type="AnimatedSprite"]
position = Vector2( 179.055, 170.906 )
frames = SubResource( 1 )
frame = 1
playing = true
