[gd_scene load_steps=3 format=2]

[ext_resource path="res://gfx/bowl.png" type="Texture" id=1]

[sub_resource type="PhysicsMaterial" id=1]
friction = 10.0
rough = true

[node name="Bowl" type="RigidBody2D"]
mass = 152.73
physics_material_override = SubResource( 1 )
gravity_scale = 0.0

[node name="Sprite" type="Sprite" parent="."]
position = Vector2( 229, 164 )
texture = ExtResource( 1 )

[node name="CollisionShape2D" type="CollisionPolygon2D" parent="."]
polygon = PoolVector2Array( 90.2114, 114.32, 101.538, 191.246, 138.432, 225.286, 219.05, 243.159, 309.662, 230.417, 349.387, 201.217, 365.823, 152.547, 367.239, 114.792, 371.014, 114.792, 361.103, 207.764, 311.078, 238.912, 221.492, 252.658, 138.432, 237.556, 97.2905, 201.629 )
