[gd_scene load_steps=5 format=2]

[ext_resource path="res://gfx/dude.png" type="Texture" id=1]
[ext_resource path="res://Dropper.tscn" type="PackedScene" id=2]
[ext_resource path="res://Dude.gd" type="Script" id=3]

[sub_resource type="RectangleShape2D" id=1]
extents = Vector2( 18.4155, 134.998 )

[node name="Dude" type="KinematicBody2D"]
position = Vector2( 280.758, 256.39 )
rotation = 1.5708
script = ExtResource( 3 )

[node name="Sprite" type="Sprite" parent="."]
texture = ExtResource( 1 )

[node name="CollisionPolygon2D" type="CollisionPolygon2D" parent="."]
polygon = PoolVector2Array( -44.265, -172.198, -42.1437, -87.3449, 122.612, -88.7591, 124.734, -170.784, 165.746, -172.198, 151.604, -76.0312, -158.361, -77.722, -171.089, -174.596, -71.1351, -218.16 )

[node name="CollisionShape2D" type="CollisionShape2D" parent="."]
position = Vector2( 42.4264, 70.7106 )
shape = SubResource( 1 )

[node name="Dropper" parent="." instance=ExtResource( 2 )]
position = Vector2( 29.184, -107.756 )
numberOfDrops = 30
